{
    "AWSEBDockerrunVersion": "1",
    "Image": {
      "Name": "$CI_REGISTRY_IMAGE:$APP_VERSION"
    },
    "Authentication": {
      "Bucket": "$AWS_S3_BUCKET",
      "Key": "auth.json"
    },
    "Ports": [
      {
        "ContainerPort": 8080
      }
    ]
  }
